{
	"Offene": [{
		"Nr": 1,
		"Mitarbeiter": "Hans Unterseher",
		"Kunde": "Kaiser& Kaiser",
		"Ort": "Bremen",
		"Tätigkeit": "Unterstützen des IT Aufbaus",
		"Bezeichnung": "Montage",
		"Status": "Offen"
	}, {
		"Nr": 2,
		"Mitarbeiter": "Anna Kanns",
		"Kunde": "Ship Shore",
		"Ort": "Bremerhaven",
		"Tätigkeit": "Beraten",
		"Bezeichnung": "Beratung in der It",
		"Status": "Offen"
	},
	{
		"Nr": 3,
		"Mitarbeiter": "Hans Heinz",
		"Kunde": "Sequdo GmbH",
		"Ort": "Bremerhaven",
		"Tätigkeit": "Reparatur",
		"Bezeichnung": "Instandsetzung der Maschinen",
		"Status": "Offen"
	},
		{
		"Nr": 4,
		"Mitarbeiter": "Dell Gut",
		"Kunde": "Hans&Jens GmbH",
		"Ort": "Bremerhaven",
		"Tätigkeit": "E-Check",
		"Bezeichnung": "Elektronik Kontrolle",
		"Status": "Offen"
	},	{
		"Nr": 5,
		"Mitarbeiter": "Sam von Haven",
		"Kunde": "Güven OHG",
		"Ort": "Hamburgn",
		"Tätigkeit": "Ofen Instalation",
		"Bezeichnung": "Instalation eines Backofens",
		"Status": "Offen"
	},	{
		"Nr": 6,
		"Mitarbeiter": "Anna Kanns",
		"Kunde": "Hans&Jens GmbH",
		"Ort": "Bremerhaven",
		"Tätigkeit": "Beratung",
		"Bezeichnung": "Beratung neuer IT Lösung im Fachbereich Finanzdienstleistunen",
		"Status": "Offen"
	},	{
		"Nr": 7,
		"Mitarbeiter": "Wolfgang Kühle",
		"Kunde": "VW Haus Meier",
		"Ort": "Bremen",
		"Tätigkeit": "Sicherheits Montage",
		"Bezeichnung": "Instalation einer neue Alarmanlage",
		"Status": "Offen"
	},	{
		"Nr": 8,
		"Mitarbeiter": "Manfred Intel",
		"Kunde": "Landschaftsbauer Meier GmbH",
		"Ort": "Rotenburg Wümme",
		"Tätigkeit": "Sicherheits Montage",
		"Bezeichnung": "Instalation einer neue Alarmanlage",
		"Status": "Offen"
	}],
	
	"Fertige":[{
		"Auftrag"	: 1,
		"Mitarbeiter": "Karl Heinz",
		"Kunde": "Landschaftsbauer Bauers Meiers GmbH",
		"Ort": "Rotenburg-Wümme",
		"Tätigkeit": "Kuhstall Erneuerung",
		"Bezeichnung": "Kuhstall Erneuerung"
	},
	{
		"Auftrag"	: 2,
		"Mitarbeiter": "Hans heinz",
		"Kunde": "Hans & Jens GmbH",
		"Ort": "Bremerhaven",
		"Tätigkeit": "Elektro",
		"Bezeichnung": "E-Check"
	},{
		"Auftrag"	: 3,
		"Mitarbeiter": "Karl Heinz",
		"Kunde": "KO/DU GmbH",
		"Ort": "Oldenburg",
		"Tätigkeit": "Kantinenherrichtung",
		"Bezeichnung": "Erneuerung der Kantine"
	},
	{
		"Auftrag"	: 4,
		"Mitarbeiter": "Andreas von Guten",
		"Kunde": "Soqudo GmbH",
		"Ort": "Bremerhaven",
		"Tätigkeit": "Maschinen Installation",
		"Bezeichnung": "Montage"
	},{
		"Auftrag"	: 5,
		"Mitarbeiter": "Emanuel Groß",
		"Kunde": "VM Haus Maier",
		"Ort": "Bremen",
		"Tätigkeit": "Lichterinstallation",
		"Bezeichnung": "Montage"
	}],
	
	"Alle": [{
		"Nr": 1,
		"Mitarbeiter": "Hans Unterseher",
		"Kunde": "Street Work",
		"Ort": "Bremen",
		"Tätigkeit": "Unterstützen",
		"Bezeichnung": "Nett",
		"Status": "Offen"
	},
	{
		"Nr": 2,
		"Mitarbeiter": "Anna Kanns",
		"Kunde": "Ship Shore",
		"Ort": "Bremerhaven",
		"Tätigkeit": "Beraten",
		"Bezeichnung": "Beratung in der It",
		"Status": "Offen"
	},
	{
		"Nr": 3,
		"Mitarbeiter": "Karl Heinz",
		"Kunde": "VM Haus Maier",
		"Ort": "Bremen",
		"Tätigkeit": "Bodennachbesserung",
		"Bezeichnung": "Reparatur Arbeiten",
		"Status": "Fertig"
	},
	{
		"Nr": 4,
		"Mitarbeiter": "Anna Kanns",
		"Kunde": "Hans&Jens GmbH",
		"Ort": "Bremerhaven",
		"Tätigkeit": "Beratung",
		"Bezeichnung": "Beratung neuer IT Lösung im Fachbereich Finanzdienstleistunen",
		"Status": "Offen"
	},
	{
		"Nr": 5,
		"Mitarbeiter": "Hans heinz",
		"Kunde": "Hans & Jens GmbH",
		"Ort": "Bremerhaven",
		"Tätigkeit": "Elektro",
		"Bezeichnung": "E-Check",
		"Status": "Fertig"
	},
	{
		"Nr": 6,
		"Mitarbeiter": "Karl Heinz",
		"Kunde": "KO/DU GmbH",
		"Ort": "Oldenburg",
		"Tätigkeit": "Kantinenherrichtung",
		"Bezeichnung": "Erneuerung der Kantine",
		"Status": "Fertig"
	}
	,{
		"Nr": 7,
		"Mitarbeiter": "Manfred Intel",
		"Kunde": "Landschaftsbauer Meier GmbH",
		"Ort": "Rotenburg Wümme",
		"Tätigkeit": "Sicherheits Montage",
		"Bezeichnung": "Instalation einer neue Alarmanlage",
		"Status": "Offen"
	},
	{
		"Nr": 8,
		"Mitarbeiter": "Emanuel Groß",
		"Kunde": "VM Haus Maier",
		"Ort": "Bremen",
		"Tätigkeit": "Lichterinstallation",
		"Bezeichnung": "Montage",
		"Status": "Fertig"
	},	{
		"Nr": 9,
		"Mitarbeiter": "Hans Heinz",
		"Kunde": "Sequdo GmbH",
		"Ort": "Bremerhaven",
		"Tätigkeit": "Reparatur",
		"Bezeichnung": "Instandsetzung der Maschinen",
		"Status": "Offen"
	},
		{
		"Nr": 10,
		"Mitarbeiter": "Dell Gut",
		"Kunde": "Hans&Jens GmbH",
		"Ort": "Bremerhaven",
		"Tätigkeit": "E-Check",
		"Bezeichnung": "Elektronik Kontrolle",
		"Status": "Offen"
	},	
	{
		"Nr": 11,
		"Mitarbeiter": "Andreas von Guten",
		"Kunde": "Soqudo GmbH",
		"Ort": "Bremerhaven",
		"Tätigkeit": "Maschinen Installation",
		"Bezeichnung": "Montage",
		"Status": "Fertig"
	},
	{
		"Nr": 12,
		"Mitarbeiter": "Sam von Haven",
		"Kunde": "Güven OHG",
		"Ort": "Hamburgn",
		"Tätigkeit": "Ofen Instalation",
		"Bezeichnung": "Instalation eines Backofens",
		"Status": "Offen"
	},		{
		"Nr": 13,
		"Mitarbeiter": "Wolfgang Kühle",
		"Kunde": "VW Haus Meier",
		"Ort": "Bremen",
		"Tätigkeit": "Sicherheits Montage",
		"Bezeichnung": "Instalation einer neue Alarmanlage",
		"Status": "Offen"
	}],
	
	"Kunden": [{
		"KUN_ID": 1,
		"Name": "KO/DU GmbH",
		"Anschrift": "ABC-Straße 133",
		"Ort": "Oldenburg",
		"Branche": "Partnervermittlung"
	},
	{
		"KUN_ID": 2,
		"Name": "Hans & Jens GmbH",
		"Anschrift": "Hafenstr. 89",
		"Ort": "Bremerhaven",
		"Branche": "Finazierungsdienstleister"
	},
	{
		"KUN_ID": 3,
		"Name": "Soqudo GmbH",
		"Anschrift": "Georgstr. 217",
		"Ort": "Bremerhaven",
		"Branche": "Verpackungsdienstleister"
	},
	{
		"KUN_ID": 4,
		"Name": "Landschaftsbauer Bauers Meiers GmbH",
		"Anschrift": "St.-Gerorg-Str. 22B",
		"Ort": "Rotenburg-Wümme",
		"Branche": "Landschaftsbauer"
	},
	{
		"KUN_ID": 5,
		"Name": "VM Haus Maier",
		"Anschrift": "Konsult-schmidt-Str. 137",
		"Ort": "Bremen",
		"Branche": "Automobiel Verkauf"
	},
	{
		"KUN_ID": 6,
		"Name": "Elektroguter e.K.",
		"Anschrift": "Fährstraße 55",
		"Ort": "Hamburg",
		"Branche": "Einzelhandelskaufmann für Elektrogüter"
	},
	{
		"KUN_ID": 7,
		"Name": "Güven OHG",
		"Anschrift": "Sübenplatz 10",
		"Ort": "Hamburg",
		"Branche": "Gastronomie"
	},
	{
		"KUN_ID": 8,
		"Name": "Griechische Spezialitäten Olympus",
		"Anschrift": "Siebenbrüderweide 56",
		"Ort": "Hamburg",
		"Branche": "Gastronomie"
	},
	{
		"KUN_ID": 9,
		"Name": "Hanse Partische Allianz GmbH",
		"Anschrift": "Spitalerstr. 135",
		"Ort": "Hamburg",
		"Branche": "Finazierungsdienstleister"
	},
	{
		"KUN_ID": 10,
		"Name": "Kaiser & Kaiser",
		"Anschrift": "Wihlem-Kaiser-Platz 71",
		"Ort": "Cuxhaven",
		"Branche": "Immobielenmakler"
	},
	{
		"KUN_ID": 11,
		"Name": "Ship Shore",
		"Anschrift": "Wihlem-Kaiser-Platz 71",
		"Ort": "Oldenburg",
		"Branche": "Immobielenmakler"
	}],
	
	"Material": [{
		"MAT_ID": 1,
		"Kategorie": "Hammer",
		"STK": "25",
		"Bezeichnung": "Gummihammer"
	},
	{
		"MAT_ID": 2,
		"Kategorie": "Schraubendreher",
		"STK": "45",
		"Bezeichnung": "Kreuzschlitzdreher"
	},
	{
		"MAT_ID": 3,
		"Kategorie": "Schrauben",
		"STK": "450",
		"Bezeichnung": "Kreuzschlitzschrauben"
	},
	{
		"MAT_ID": 4,
		"Kategorie": "Schrauben",
		"STK": "500",
		"Bezeichnung": "Schlitzschrauben"
	},
	{
		"MAT_ID": 5,
		"Kategorie": "Nägel",
		"STK": "700",
		"Bezeichnung": "Zimmermannsnägel"
	},
	{
		"MAT_ID": 6,
		"Kategorie": "Reinigungstücher",
		"STK": "30",
		"Bezeichnung": "Microfaser-Lappen"
	},
	{
		"MAT_ID": 7,
		"Kategorie": "Befestigungsmaterial",
		"STK": "50",
		"Bezeichnung": "Sekundenkleber"
	}],
	"Firmenwagen": [{
		"Wagen-ID": 1,
		"Marke": "VW",
		"Modell": "Transporter T4",
		"Hubraum": "1.798",
		"Kilometerstand": "108.456"
	},
		{
		"Wagen-ID": 2,
		"Marke": "Mercedes Benz",
		"Modell": "Transporter Vito",
		"Hubraum": "1.798",
		"Kilometerstand": "108.456"
	},
	{
		"Wagen-ID": 3,
		"Marke": "VW",
		"Modell": "Transporter T4",
		"Hubraum": "1.798",
		"Kilometerstand": "145.008"
	},
	{
		"Wagen-ID": 4,
		"Marke": "VW",
		"Modell": "Transporter T4",
		"Hubraum": "1.798",
		"Kilometerstand": "201.456"
	},
	{
		"Wagen-ID": 5,
		"Marke": "Mercedes Benz",
		"Modell": "Transporter Vito",
		"Hubraum": "1.798",
		"Kilometerstand": "89.967"
	},
	{
		"Wagen-ID": 6,
		"Marke": "Mercedes Benz",
		"Modell": "Transporter Citan",
		"Hubraum": "1.798",
		"Kilometerstand": "195.891"
	}],
	"Personal": [{
		"Perso-Id": 1,
		"Vorname": "Hans",
		"Name": "Heinz",
		"B-Day": "15.04.1986",
		"Tätigkeit": "Elektriker"
	},
	{
		"Perso-Id": 2,
		"Vorname": "Karl",
		"Name": "Heinz",
		"B-Day": "20.07.1980",
		"Tätigkeit": "Monteur"
	},
	{
		"Perso-Id": 3,
		"Vorname": "Andreas",
		"Name": "von Guten",
		"B-Day": "01.03.1991",
		"Tätigkeit": "monteur"
	},
	{
		"Perso-Id": 4,
		"Vorname": "Emanuel",
		"Name": "Groß",
		"B-Day": "27.11.1992",
		"Tätigkeit": "Elektriker"
	},
	{
		"Perso-Id": 5,
		"Vorname": "Hans",
		"Name": "Unterseher",
		"B-Day": "05.02.1979",
		"Tätigkeit": "Fachinformatiker für Systemintegration"
	},
	{
		"Perso-Id": 6,
		"Vorname": "Anna",
		"Name": "Kanns",
		"B-Day": "30.06.1989",
		"Tätigkeit": "Beraterin"
	},
	{
		"Perso-Id": 7,
		"Vorname": "Dell ",
		"Name": "Gut",
		"B-Day": "23.10.1980",
		"Tätigkeit": "Elektriker"
	},
	{
		"Perso-Id": 8,
		"Vorname": "Sam",
		"Name": "von Haven",
		"B-Day": "16.07.1980",
		"Tätigkeit": "Elektriker"
	},
	{
		"Perso-Id": 9,
		"Vorname": "Wolfgang",
		"Name": "Kühle",
		"B-Day": "28.12.1968",
		"Tätigkeit": "Elektriker"
	},
	{
		"Perso-Id": 10,
		"Vorname": "Manfred",
		"Name": "Intel",
		"B-Day": "09.09.1979",
		"Tätigkeit": "Elektriker"
	}]
}